{
    "news": [{
            "id": 1,
            "header": "Jornada de La Liga Santander, sustituida por un torneo de FIFA",
            "author": "Manolo Lama",
            "date": "19-03-2020",
            "img": "https://www.hyperhype.es/wp-content/uploads/2020/03/La-Liga-Santander-Challenge-MOD-1500x845.jpg",
            "lede": "El torneo, impulsado por el streamer Ibai Llanos, junta a los 20 equipos participantes de La Liga Santander en un torneo eliminatorio, en el cual son representados por jugadores de sus plantillas. El torneo se lleva a cabo los días 20, 21 y 22 de marzo, fin de semana en el que se ha cancelado la actividad deportiva en España, debido al Coronavirus.",
            "body": "El formato de LaLiga Santander Challenge estará compuesto por un cuadro de enfrentamientos que se resolverán a un único partido de 18 minutos de duración (9 minutos cada parte) compuesto por los jugadores, pertenecientes a equipos de LaLiga Santander. Tras los tres partidos de preoctavos de final, a disputarse este sábado, el sábado tendrán lugar los octavos quedando para el domingo, los cuartos de final, las semifinales y la final, el domingo 22. \n Futoblistas participantes \n Athletic Club: Gorka Guruzeta \nFC Barcelona: Sergi Roberto\n RCD Espanyol: Adrián Embarba\nReal Madrid CF: Marco Asensio\nClub Atlético de Madrid: Marcos Llorente\nSevilla CF:Sergio Reguilón\nReal Betis Balompié: Borja Iglesias\nReal Sociedad de Fútbol: Adnan Januzaj\nLevante UD: Carlos Clerc\nValencia CF: Carlos Soler\nCA Osasuna: Rubén García\nDeportivo Alavés: Lucas Pérez\nVillarreal CF: Manu Morlanes\nRC Celta de Vigo: Kevin Vázquez\nReal Valladolid CF: Pedro Porro\nCD Leganés: Aitor Ruibal\nGranada CF: Jose Antonio Martínez\nSD Eibar: Edu Expósito\nGetafe CF: Jason Remeseiro.",
            "footer": "Todos los emparejamientos podrán seguirse a través del canal de Twitch de Ibai Llanos. También por Movistar Deportes 1."
        },
        {
            "id": 2,
            "header": "Grandes Premios de Fórmula 1, sustituidos por carreras virtuales",
            "author": "Antonio Lobato",
            "date": "20-03-2020",
            "img": "https://thenewswheel.com/wp-content/uploads/2020/03/F1-Esports-Virtual-Bahrain-Grand-Prix-1000x431.jpg",
            "lede": "Ante la cancelación del Gran Premio de Australia y la suspensión de los consecuentes GP, la Fórmula 1 ha lanzado una serie de GP virtuales, a realizarse los días correspondientes con los GP de la vida real. En estas carreras, participarán pilotos actuales de las escuderías, acompañados de invitados especiales.",
            "body": "El formato, inspirado en el #NotTheAusGP impulsado por el equipo de eSports Veloce, junta a los pilotos de Fórmula 1, con demás personajes de distintas esferas como lo son otros deportes. En el #NotTheAusGP participó Lando Norris (actual piloto de la escudería McLaren), Thibaut Curtuois (portero del Real Madrid CF), Esteban Gutiérrez (ex-piloto de F1 y actual piloto de pruebas de la escudería Mercedes AMG-Petronas F1), entre otros; junto a pilotos del mundo de los eSports como lo son Aaravaa, Tiametmarduk, Jimmy Broadbent, etc. \n Ante el éxito de la carrera impulsada por Veloce, la Fórmula 1 ha decidido hacer lo mismo para los subsecuentes GP que han sido pospuestos o cancelados. ",
            "footer": "Los GP virtuales se podrán seguir a través de las redes sociales de la Fórmula 1, asimismo la serie #NotTheGP, puede seguirse en el canal de Twitch Veloce_Esports"

        },
        {
            "id": 3,
            "header": "Equipos de Fórmula 1 ayudarán con su tecnología en contra de coronavirus",
            "author": "Albert Fábrega",
            "date": "21-03-2020",
            "img": "https://www.mundodeportivo.com/r/GODO/MD/p7/Motor/Imagenes/2020/03/19/Recortada/img_pmorata_20200220-170740_imagenes_md_propias_pmorata_bottas1259-k5MB-U474260071292lXF-980x554@MundoDeportivo-Web.JPG",
            "lede": "Mercedes (Brackley), Red Bull (Milton Keynes), McLaren (Woking) y Williams (Grove), decidieron apoyar al gobierno británico en la lucha contra la pandemia del coronavirus.",
            "body": "No es un secreto ni ninguna falacia que la Fórmula 1 es una de las industrias más potentes del mundo en cuanto a tecnología. Mediante fábricas que pueden llegar a aglutinar a miles de trabajadores entre técnicos, ingenieros, operarios y otros cargos, trabajan de forma incesante para encontrar a través de la más alta tecnología que hay en el mercado, cualquier milésima que sea posible para que sus respectivos monoplazas sean los más rápidos del planeta. A la vez, la F1 es un gran banco de pruebas para que las marcas desarrollen y exploren en nuevas tecnologías para que luego sean exportadas al mercado del automóvil. Por ello, cuatro equipos de F1 respondieron de forma afirmativa a la llamada de Boris Johnson, primer ministro británico, que pidio a la industria británica que ayudara a la población con su alta tecnología en esta crisis global de coronavirus. La industria de la F1, para salvar a personas del virus que está atacando a todo el planeta.",
            "footer": "La importancia de los equipos de la F1 en este tema reside en su gran capacidad para realizar piezas y desarrollar ideas de la forma más rápida y eficiente posible. En eso consiste su trabajo con sus coches, algo que se podría exportar a un tema médico y de tan importancia como el del coronavirus."

        },
        {
            "id": 4,
            "header": "El Barça transmite al capitán Ante Tomic que podría haber recorte de fichas",
            "author": "Cristóbal Soria",
            "date": "22-03-2020",
            "img": "https://www.mundodeportivo.com/r/GODO/MD/p7/Baloncesto/Imagenes/2020/03/21/Recortada/img_mmontilla_20191122-223659_imagenes_md_propias_mmontilla_euroleague_fcb_25-k0ZF-U487332921T0H-980x554@MundoDeportivo-Web.jpg",
            "lede": "El club ha hablado con el pívot croata para que traslade a sus compañeros la difícil situación económica creada por el coronavirus.",
            "body": "Algunos jugadores del Barça de basket ya conocen que el club azulgrana les podría pedir una rebaja en sus fichas para poder manejar mejor el golpe económico que supone la crisis del coronavirus. De momento todo está abierto y no hay una decisión tomada, pero el Barça ha querido adelantarse y avisar a los capitanes de su primer equipo de baloncesto.",
            "footer": "El Barça también tiene sobre la mesa la posibilidad de solicitar un ERTE, aunque todo apunta a que sí lo pone en marcha será para sus cientos de empleados pero no para sus jugadores. Con los deportistas profesionales la idea es llegar a acuerdos de rebaja de salario, en principio, tratando cada caso de forma individual. No es lo mismo el caso de Leo Messi que el de Ansu Fati, ni tampoco es igual el caso de Nikola Mirotic que el de Rolands Smits."

        },
        {
            "id": 5,
            "header": "El fútbol llora la muerte del expresidente del Real Madrid Lorenzo Sanz",
            "author": "Tomás Roncero",
            "date": "20-03-2020",
            "img": "https://imagenes.20minutos.es/files/image_656_370/files/fp/uploads/imagenes/2020/03/21/lorenzo-sanz-a-hombros-y-con-la-champions.r_d.420-380-6406.jpeg",
            "lede": "Muere Lorenzo Sanz, expresidente del Real Madrid, a los 76 años con coronavirus.",
            "body": "El fútbol español llora la muerte de Lorenzo Sanz, expresidente del Real Madrid que será recordado por los grandes fichajes que le permitieron construir un equipo de estrellas que alcanzó la cima del fútbol mundial. Es por ello que las muestras de cariño hacia su familia se han sucedido desde todos los ámbitos del fútbol.",
            "footer": "Lorenzo Sanz fue un hombre muy querido entre los miembros de la prensa, como quedó demostrado con la oleada de mensajes de cariño que se le dedicaron desde los profesionales de la comunicación."
        }
    ]

}